{
  "type": "object",
  "definitions": {},
  "$schema": "http://json-schema.org/draft-07/schema#",
  "properties": {
    "id": {
      "$id": "/properties/id",
      "type": "integer",
      "description": "Trip id",
      "example": 1
    },
    "country": {
      "$id": "/properties/country",
      "type": "string",
      "description": "Country code",
      "example": "SK"
    },
    "name": {
      "$id": "/properties/name",
      "type": "string",
      "description": "Host name",
      "example": 2
    },
    "type": {
      "$id": "/properties/type",
      "type": "string",
      "description": "Host type",
      "example": "non-client"
    }
  },
  "required": [
    "id",
    "name",
    "type"
  ]
}
