{
  "type": "object",
  "definitions": {},
  "$schema": "http://json-schema.org/draft-07/schema#",
  "properties": {
    "total_items": {
      "$id": "/properties/total_items",
      "type": "integer",
      "description": "Total questions",
      "example": 1
    },
    "current_items_count": {
      "$id": "/properties/current_items_count",
      "type": "integer",
      "description": "Total filtered questions",
      "example": 1
    },
    "total_pages": {
      "$id": "/properties/total_pages",
      "type": "integer",
      "description": "Total pages",
      "example": 1
    },
    "page": {
      "$id": "/properties/page",
      "type": "integer",
      "description": "Current page",
      "example": 1
    },
    "items_per_page": {
      "$id": "/properties/items_per_page",
      "type": "integer",
      "description": "Items per page",
      "example": 1
    },
    "next_link": {
      "$id": "/properties/next_link",
      "type": "string",
      "description": "Next link path",
      "example": "text"
    },
    "previous_link": {
      "$id": "/properties/previous_link",
      "type": "string",
      "description": "Previous link path",
      "example": "text"
    },
    "items": {
      "type": "array",
      "items": {
        "type": "object",
        "$ref": "#/response/registrations/registration"
      }
    }
  }
}
