{
  "type": "object",
  "definitions": {},
  "$schema": "http://json-schema.org/draft-07/schema#",
  "properties": {
    "search": {
      "$id": "/properties/search",
      "type": "string",
      "description": "Search query",
      "example": "Germany"
    },
    "showDisabled": {
      "$id": "/properties/showDisabled",
      "type": "boolean",
      "description": "Include not enabled countries",
      "example": true
    }
  },
  "required": [
  ]
}
