<svg width="134" height="39" viewBox="0 0 134 39" fill="none" xmlns="http://www.w3.org/2000/svg">
<path d="M7.35001 7.89247H4.61488L1.79526 2.35484H1.74774C1.81462 3.22581 1.84806 3.89068 1.84806 4.34946V7.89247H0V0.0322581H2.72457L5.53363 5.49462H5.56531C5.51603 4.70251 5.49139 4.06631 5.49139 3.58602V0.0322581H7.35001V7.89247Z" fill="#BBBCBC"/>
<path d="M9.4511 7.89247V0.0322581H11.5473V7.89247H9.4511Z" fill="#BBBCBC"/>
<path d="M20.217 0.0322581V4.76344C20.217 5.79211 19.9301 6.58961 19.3563 7.15591C18.786 7.71864 17.9623 8 16.8852 8C15.8327 8 15.023 7.72581 14.4563 7.17742C13.8931 6.62903 13.6115 5.8405 13.6115 4.81183V0.0322581H15.7077V4.64516C15.7077 5.20072 15.8098 5.60394 16.0139 5.85484C16.2181 6.10573 16.5191 6.23118 16.9168 6.23118C17.3428 6.23118 17.6508 6.10753 17.8409 5.86022C18.0345 5.60932 18.1313 5.20072 18.1313 4.63441V0.0322581H20.217Z" fill="#BBBCBC"/>
<path d="M25.634 7.89247L24.0552 2.23118H24.0077C24.0816 3.19534 24.1186 3.94444 24.1186 4.47849V7.89247H22.2705V0.0322581H25.0479L26.6584 5.6129H26.7006L28.2794 0.0322581H31.062V7.89247H29.1453V4.44624C29.1453 4.26702 29.1471 4.0681 29.1506 3.84946C29.1576 3.63082 29.1823 3.09498 29.2245 2.24194H29.177L27.6194 7.89247H25.634Z" fill="#BBBCBC"/>
<path d="M37.8942 7.89247L37.514 6.41935H35.0059L34.6152 7.89247H32.3236L34.8422 0H37.6249L40.1752 7.89247H37.8942ZM37.081 4.67742L36.7484 3.3871C36.6709 3.10036 36.5759 2.72939 36.4632 2.27419C36.3541 1.819 36.2819 1.49283 36.2467 1.2957C36.2151 1.47849 36.1517 1.77957 36.0567 2.19892C35.9651 2.61828 35.7592 3.44444 35.4389 4.67742H37.081Z" fill="#BBBCBC"/>
<path d="M48 3.7957C48 5.10753 47.6445 6.11828 46.9334 6.82796C46.2259 7.53763 45.2297 7.89247 43.9448 7.89247H41.4473V0.0322581H44.1191C45.3581 0.0322581 46.3139 0.354839 46.9862 1C47.6621 1.64516 48 2.57706 48 3.7957ZM45.8351 3.87097C45.8351 3.15054 45.6943 2.61649 45.4127 2.26882C45.1346 1.92115 44.7104 1.74731 44.1402 1.74731H43.533V6.15054H43.9976C44.6312 6.15054 45.0959 5.96416 45.3916 5.5914C45.6873 5.21505 45.8351 4.64158 45.8351 3.87097Z" fill="#BBBCBC"/>
<g clip-path="url(#clip0)">
<path fill-rule="evenodd" clip-rule="evenodd" d="M126.659 35.457C126.659 33.5008 128.248 31.9131 130.203 31.9131C132.161 31.9131 133.748 33.5008 133.748 35.457C133.748 37.4131 132.161 38.9999 130.203 38.9999C128.248 38.9999 126.659 37.4131 126.659 35.457Z" fill="#92BA44"/>
<path fill-rule="evenodd" clip-rule="evenodd" d="M13.6057 26.0737C13.6057 23.8289 13.1721 22.1638 12.3039 21.0789C11.4358 19.9954 10.1189 19.4534 8.34951 19.4534H6.46738V33.1803H7.90788C9.87259 33.1803 11.3136 32.5973 12.2299 31.4284C13.1466 30.2619 13.6057 28.4761 13.6057 26.0737ZM20.318 25.8402C20.318 29.9289 19.2177 33.0803 17.0185 35.2921C14.8197 37.5053 11.7278 38.6115 7.74369 38.6115H0V14.1067H8.2844C12.1265 14.1067 15.0929 15.1129 17.1831 17.1237C19.2729 19.1355 20.318 22.0398 20.318 25.8402ZM41.7669 38.6115V14.0039H47.9286V38.6115H41.7669ZM56.5838 29.4327C56.5838 31.002 56.7881 32.1987 57.1981 33.0209C57.6082 33.8435 58.2956 34.2549 59.2619 34.2549C60.2183 34.2549 60.8935 33.8435 61.2875 33.0209C61.6815 32.1987 61.8778 31.002 61.8778 29.4327C61.8778 27.8718 61.6786 26.6949 61.2795 25.9001C60.8798 25.1034 60.1976 24.7044 59.2303 24.7044C58.2848 24.7044 57.6082 25.1011 57.1981 25.8912C56.7881 26.6817 56.5838 27.8619 56.5838 29.4327ZM68.1493 29.4327C68.1493 32.4214 67.3652 34.7534 65.7935 36.4251C64.2237 38.0978 62.025 38.9336 59.1996 38.9336C56.489 38.9336 54.3327 38.0789 52.7313 36.3685C51.128 34.6586 50.3273 32.3473 50.3273 29.4327C50.3273 26.4525 51.112 24.1369 52.6832 22.486C54.2539 20.8355 56.4578 20.01 59.2945 20.01C61.0478 20.01 62.5982 20.3921 63.9425 21.1563C65.2872 21.9199 66.3243 23.0138 67.0547 24.4398C67.7846 25.8629 68.1493 27.5284 68.1493 29.4327ZM70.5958 38.6115V20.3332H76.7579V38.6115H70.5958ZM70.5958 18.1223V14.0039H76.7579V18.1223H70.5958ZM89.2435 33.9492C90.0744 33.9492 91.0661 33.7383 92.2221 33.319V37.9181C91.3908 38.2822 90.6014 38.544 89.8507 38.6992C89.1 38.8563 88.2191 38.9336 87.2104 38.9336C85.1414 38.9336 83.6494 38.4143 82.7346 37.3766C81.822 36.3388 81.3648 34.7449 81.3648 32.5945V25.0596H79.2067V20.3341H81.3648V15.6671L87.5737 14.5869V20.3341H91.5059V25.0596H87.5737V32.1742C87.5737 33.3572 88.1309 33.9492 89.2435 33.9492ZM103.505 33.9492C104.337 33.9492 105.328 33.7383 106.485 33.319V37.9181C105.655 38.2822 104.863 38.544 104.113 38.6992C103.361 38.8563 102.483 38.9336 101.473 38.9336C99.4039 38.9336 97.9119 38.4143 96.998 37.3766C96.0845 36.3388 95.6273 34.7449 95.6273 32.5945V25.0596H93.4678V20.3341H95.6273V15.5964L101.836 14.5869V20.3341H105.769V25.0596H101.836V32.1742C101.836 33.3572 102.393 33.9492 103.505 33.9492ZM114.26 27.2058H119.553C119.534 26.3237 119.29 25.6195 118.821 25.0931C118.355 24.5652 117.727 24.3015 116.939 24.3015C116.214 24.3015 115.608 24.5355 115.118 25.003C114.63 25.4718 114.344 26.2053 114.26 27.2058ZM122.95 22.1648C124.415 23.6001 125.148 25.6681 125.148 28.3681V31.1737H114.134C114.175 32.1954 114.542 32.9973 115.229 33.5784C115.917 34.1591 116.854 34.4497 118.042 34.4497C119.125 34.4497 120.12 34.344 121.027 34.1341C121.654 33.9893 122.319 33.7699 123.018 33.485L123.965 37.6034C123.003 38.1044 122.012 38.4506 120.989 38.6426C119.959 38.836 118.731 38.9336 117.302 38.9336C114.329 38.9336 112.02 38.1242 110.375 36.5058C108.732 34.8874 107.909 32.5827 107.909 29.5931C107.909 26.5063 108.671 24.1374 110.194 22.4869C111.718 20.8355 113.893 20.0105 116.719 20.0105C119.407 20.0105 121.486 20.7289 122.95 22.1648ZM28.4957 27.2058H33.7902C33.7694 26.3237 33.5255 25.6195 33.0574 25.0931C32.5903 24.5652 31.9623 24.3015 31.1753 24.3015C30.4496 24.3015 29.8433 24.5355 29.3545 25.003C28.8661 25.4718 28.5797 26.2053 28.4957 27.2058ZM37.1864 22.1648C38.6519 23.6001 39.3842 25.6681 39.3842 28.3681V31.1737H28.3698C28.4118 32.1954 28.777 32.9973 29.4649 33.5784C30.1523 34.1591 31.0913 34.4497 32.2779 34.4497C33.3603 34.4497 34.3549 34.344 35.2637 34.1341C35.8903 33.9893 36.5551 33.7699 37.2539 33.485L38.2008 37.6034C37.2392 38.1044 36.2479 38.4506 35.2245 38.6426C34.195 38.836 32.9659 38.9336 31.5376 38.9336C28.5646 38.9336 26.2555 38.1242 24.6121 36.5058C22.9673 34.8874 22.1454 32.5827 22.1454 29.5931C22.1454 26.5063 22.9074 24.1374 24.4304 22.4869C25.9535 20.8355 28.1277 20.0105 30.954 20.0105C33.6434 20.0105 35.7214 20.7289 37.1864 22.1648Z" fill="black"/>
</g>
<defs>
<clipPath id="clip0">
<rect width="134" height="25" fill="white" transform="translate(0 14)"/>
</clipPath>
</defs>
</svg>
