<svg width="202" height="235" viewBox="0 0 202 235" fill="none" xmlns="http://www.w3.org/2000/svg">
<path d="M182.37 13.6072C189.349 9.26908 196.019 6.12683 200.828 10.2051C191.225 -7.03176 170.909 17.2369 161.306 9.37157e-05C161.069 0.916207 160.833 1.83197 160.597 2.74632L160.593 2.74456L143.287 69.7922C144.178 69.816 145.012 70.0468 145.761 70.4211L158.265 21.9785C168.445 33.5778 186.866 13.2583 195.87 29.4156C192.713 18.9358 187.695 15.672 182.37 13.6072Z" fill="#92BA44"/>
<path d="M0.0737305 134.501C0.0737305 190.004 45.0703 235 100.572 235C156.077 235 201.07 190.004 201.07 134.501C201.07 78.9964 156.077 34.0034 100.572 34.0034C45.0703 34.0034 0.0737305 78.9964 0.0737305 134.501Z" fill="#92BA44"/>
<path d="M48.4609 134.501C48.4609 163.28 71.7918 186.612 100.571 186.612C129.351 186.612 152.681 163.28 152.681 134.501C152.681 105.72 129.351 82.391 100.571 82.391C71.7918 82.391 48.4609 105.72 48.4609 134.501Z" fill="white"/>
<path d="M100.221 66.0977C103.185 65.7304 105.482 63.233 105.482 60.1744C105.482 57.1155 103.185 54.6203 100.221 54.253V66.0977Z" fill="#355137"/>
<path d="M149.276 46.5925L143.287 69.7922C144.178 69.816 145.012 70.0468 145.761 70.4211L151.571 47.912C150.811 47.4639 150.048 47.0214 149.276 46.5925Z" fill="#355137"/>
<path d="M29.377 205.427C47.4976 223.616 72.542 234.901 100.222 234.996V172.311H71.6262L29.377 205.427Z" fill="#44974E"/>
<path d="M73.7072 115.053C75.717 115.053 77.3419 113.426 77.3419 111.418C77.3419 109.411 75.717 107.785 73.7072 107.785C71.7005 107.785 70.0757 109.411 70.0757 111.418C70.0757 113.426 71.7005 115.053 73.7072 115.053Z" fill="#44974E"/>
<path d="M72.2134 105.411L78.9273 107.383L86.079 83.0526L92.8307 104.309L70.0469 176.049H83.6199L99.6024 125.728L100.221 127.674V72.4569H81.8969L72.2134 105.411Z" fill="#44974E"/>
<path d="M93.4917 60.1743C93.4917 63.4857 96.1741 66.172 99.4837 66.172C99.7365 66.172 99.9762 66.1284 100.222 66.0975V54.2528C99.9762 54.222 99.7365 54.1784 99.4837 54.1784C96.1741 54.1784 93.4917 56.8629 93.4917 60.1743Z" fill="#44974E"/>
<path d="M142.767 82.0294C141.88 81.9929 141.052 81.755 140.307 81.366L121.825 152.96L106.371 104.309L114.462 78.8432H137.948V72.4569H100.221V127.674L115.583 176.049H129.158L123.279 157.54L142.767 82.0294Z" fill="#355137"/>
<path d="M117.147 172L121.838 153.836L123.16 157.991L119.555 171.957L117.147 172Z" fill="#44974E"/>
<path d="M143.13 72.0495C141.123 72.0495 139.499 73.6761 139.499 75.6807C139.499 77.6874 141.123 79.3157 143.13 79.3157C145.138 79.3157 146.764 77.6874 146.764 75.6807C146.764 73.6761 145.138 72.0495 143.13 72.0495Z" fill="#355137"/>
<path d="M100.221 234.996C100.338 234.996 100.454 235 100.571 235C128.007 235 152.869 224.002 171.004 206.18L127.795 172.311H100.221V234.996Z" fill="#355137"/>
</svg>
