{
  "type": "array",
  "definitions": {},
  "$schema": "http://json-schema.org/draft-07/schema#",
  "items": {
    "type": "object",
    "properties": {
      "text": {
        "$id": "/properties/text",
        "type": "string",
        "description": "Option text",
        "example": "Answer 1"
      },
      "order": {
        "$id": "/properties/order",
        "type": [
          "integer",
          "null"
        ],
        "description": "Question option order",
        "example": 6
      }
    },
    "required": [
      "text"
    ]
  }
}
