{
  "type": "array",
  "definitions": {},
  "$schema": "http://json-schema.org/draft-07/schema#",
  "items": {
    "type": "object",
    "properties": {
      "id": {
        "$id": "/properties/id",
        "type": "integer",
        "description": "Country id",
        "example": 1
      }
    },
    "required": [
      "id"
    ]
  }
}
