{
  "type": "object",
  "definitions": {},
  "$schema": "http://json-schema.org/draft-07/schema#",
  "properties": {
    "text": {
      "$id": "/properties/text",
      "type": [
        "string",
        "null"
      ],
      "description": "Question option text translation",
      "example": "Example"
    }
  }
}
