{
  "type": "object",
  "definitions": {},
  "$schema": "http://json-schema.org/draft-07/schema#",
  "properties": {
    "title": {
      "$id": "/properties/title",
      "type": "string",
      "description": "Issue title",
      "example": "It's not working"
    },
    "message": {
      "$id": "/properties/message",
      "type": "string",
      "description": "Message concerning issue",
      "example": "I cannot create a trip"
    }
  },
  "required": [
    "title",
    "message"
  ]
}
