{
  "type": "object",
  "definitions": {},
  "$schema": "http://json-schema.org/draft-07/schema#",
  "properties": {
    "token": {
      "$id": "/properties/code",
      "type": "string",
      "description": "Account kit code",
      "example": "7da8f0dc-91c6-11e9-bc42-526af7764f64",
      "minLength": 1
    }
  },
  "required": [
    "code"
  ]
}
